{ 
  "events": [
    {
      "title": "Commission Data & IA",
      "ts": "20190625T120000",
      "date": "25 juin à 12h",
      "desc": "Objectif : présenter des retours d’expérience, sans « faux-semblant », pour faire progresser les connaissances, améliorer les modélisations techniques et les méthodes, être inspirés… et échanger.",
      "link": "http://www.telecom-valley.fr/25-juin-2019-communaute-data-ia/",
      "sponsors": [{"name": "tv-cdi"}]
    },
    {
      "title": "Commission Test & Qualité logiciel",
      "ts": "20190312T120000",
      "date": "12 mars à 12h",
      "desc": "La gestion des tests avec le plugin Zephyr dans Jira, par Sandrine DOMAGALA (Altran)",
      "link": "http://www.telecom-valley.fr/12-mars-2019-communaute-test-qualite-logiciel/",
      "sponsors": [{"name": "tv-ctql"}]
    },
    {
      "title": "Commission Data & IA",
      "ts": "20190318T120000",
      "date": "18 mars à 12h",
      "desc": "Telecom Valley a décidé de lancer une nouvelle communauté dédiée à cette thématique afin de réunir et valoriser les initiatives de ses membres, soutenir les interactions entre eux et plus généralement renforcer le positionnement historique de Côte d’Azur sur l’ensemble des sujets liés à l’IA",
      "link": "http://www.telecom-valley.fr/18-mars-2019-communaute-data-ia/",
      "sponsors": [{"name": "tv-cdi"}]
    },
    {
      "title": "Commission Open Source",
      "ts": "20190321T120000",
      "date": "21 mars à 12h",
      "desc": "Doit-on considérer l’Open Source comme une espèce en danger ?",
      "link": "http://www.telecom-valley.fr/21-mars-2019-communaute-open-source/",
      "sponsors": [{"name": "tv-cos"}]
    },
    {
      "title": "Copernicus Hackathon Sophia",
      "ts": "20190315T140000",
      "date": "15 et 16 mars",
      "desc": "Premier hackathon dédié aux données spatiales à Sophia Antipolis, ce concours fait partie d’une vaste opération de promotion des technologies spatiales, lancée par le programme européen Copernicus",
      "link": "http://www.telecom-valley.fr/15-16-mars-2019-copernicus-hackathon-sophia/"
    },
    {
      "title": "Commission Sécurité & Cloud",
      "ts": "20190402T120000",
      "date": "2 avril, 12h",
      "desc": "DevSecOps, le mutant sécurisant du DevOps, par Serge Hartmann",
      "link": "http://www.telecom-valley.fr/2-avril-2019-communaute-securite-cloud/",
      "sponsors": [{"name": "tv-csc"}]
    },
    {
      "title": "SophiaConf édition 2019",
      "ts": "20190701T140000",
      "date": "Du 1er au 3 juillet",
      "desc": "SophiaConf c'est 3 après-midi de workshops et 3 soirées de talks. Au programme IoT, AI, Cloud.",
      "link": "http://www.telecom-valley.fr/appel-a-orateurs-sophiaconf-2019",
      "sponsors": [{"name": "tv"}]
    },
    { 
      "title": "Codez votre premier skill Amazon Alexa",
      "ts": "20190404T143000",
      "date": "4 avril, à partir de 14h30",
      "desc": "<b>Benoit Nachawati</b>, Technical Evangelist chez Amazon Alexa, vous propose un workshop durant lequel il vous guidera dans la création d'une application vocale (ou skill) pour l'assistant vocal Alexa",
      "link": "https://www.eventbrite.com/e/codez-votre-premiere-skill-alexa-tickets-56027171779",
      "sponsors": [{"name": "amazon_alexa"}, {"name": "bp"}]
    },
    {
      "title": "Commission Sécurité & Cloud",
      "ts": "20190205T120000",
      "date": "5 février, 12h",
      "desc": "OPENSTACK : Présentation d’un système d’exploitation cloud OpenSource, par Christophe DERVIEUX (ALLYANS)",
      "link": "http://www.telecom-valley.fr/5-fevrier-2019-communaute-securite-cloud/",
      "sponsors": [{"name": "tv-csc"}]
    },
    {
      "title": "DevOps tooling in a startup",
      "ts": "20190115T181500",
      "date": "15 janvier à 18h15",
      "desc": "Luc Juggery viendra parler des éléments de la stack logicielle utilisée dans les applications de la startup TRAXxs",
      "link": "https://www.eventbrite.fr/e/billets-docker-cicd-etes-vous-pret-a-sauter-le-pas-52636690759?ref=estw",
      "sponsors": [{"name": "monaco-meetit"}]
    },
    {
      "title": "RivieraDev édition 2019",
      "ts": "20190515T080000",
      "date": "Les 15/16/17 mai",
      "desc": "<b>Riviera DEV</b> c'est 3 jours de conférences et d'ateliers sur un large panel de sujets : langages de programmation, Front-end & UX, Mobile & IoT, Big Data & Machine Learning, Containers & DevOps, Performance, Agilité ...",
      "link": "http://rivieradev.fr",
      "sponsors": [{"name": "rivieradev"}]
    },
    {
      "title": "Agilitest",
      "ts": "20190122T120000",
      "date": "22 janvier à 12h",
      "desc": "La société Caipture viendra présenter le logiciel AGILITEST qui permet d’automatiser facilement des tests de site web, client lourd Microsoft ou applications mobiles",
      "link": "http://www.telecom-valley.fr/22-janvier-2018-communaute-test-qualite-logiciel/",
      "sponsors": [{"name": "tv-csc"}]
    },
    {
      "title": "Yocto project",
      "ts": "20190122T120000",
      "date": "22 janvier à 12h",
      "desc": "Présentation du project Yocto (www.yoctoproject.org), par Nicolas Dechesne (Linaro)",
      "link": "http://www.telecom-valley.fr/22-janvier-2019-communaute-open-source/",
      "sponsors": [{"name": "tv-cos"}]
    },
    {
      "title": "Développement Mobile Côte-d'Azur",
      "ts": "20190209T183000",
      "date": "6 février à 18h30",
      "desc": "#31: Laurent Pastorelli, viendra nous parler de OpenAPI Spécification (aka Swagger)", 
      "link": "https://www.meetup.com/fr-FR/Developpement-Mobile-Android-iOS-Cote-d-Azur/events/253070884/",
      "sponsors": [{"name": "meetup"}]
    },
    {
      "title": "Commission Sécurité & Cloud",
      "ts": "20181212T120000",
      "date": "12 décembre, 12h",
      "desc": "Présentation de Dell Technologies et son périmètre de solutions, suivi de Security & Cloud avec VMware",
      "link": "http://www.telecom-valley.fr/12-decembre-2018-communaute-securite-cloud/",
      "sponsors": [{"name": "tv-csc"}]
    },
    {
      "title": "Développement Mobile Côte-d'Azur",
      "ts": "20190109T183000",
      "date": "9 janvier à 18h30",
      "desc": "#30: Présentation de Olivier MATROT (société Hygeex) qui viendra nous parler de ReactXP",
      "link": "https://www.meetup.com/fr-FR/Developpement-Mobile-Android-iOS-Cote-d-Azur/events/253070864/",
      "sponsors": [{"name": "meetup"}]
    },
    {
      "title": "Hands-on Labs: Modernizing Windows Applications!",
      "ts": "20181218T180000",
      "date": "18 décembre à 18h",
      "desc": "Join us for the Sophia-Antipolis local edition of this season’s Play-with-Docker workshop series !",
      "link": "https://www.meetup.com/fr-FR/Docker-Nice/events/256433802/",
      "sponsors": [{"name": "meetup"}, {"name": "docker"}, {"name": "tv-cos"}]
    },
    {
      "title": "Machine Learning dans les sciences du vivant",
      "ts": "20181113T120000",
      "date": "13 Novembre à 12h",
      "desc": "Kevin MERLO (DASSAULT SYSTEMS) nous parlera des apports et des challenges à relever pour les concepteurs d’algorithmes, d’outils et de logiciels",
      "link": "http://www.telecom-valley.fr/13-novembre-2018-commission-open-source/",
      "sponsors": [{"name": "tv-cos"}]
    },
    {
      "title": "GitLab workshop",
      "ts": "20181211T173000",
      "date": "11 décembre, Sophia-Antipolis",
      "desc": "Prenez votre laptop et venez découvrir GitLab CI lors de ce workshop animé par <b>Rémy Coutable (GitLab)</b>",
      "link": "http://www.telecom-valley.fr/11-decembre-2018-tech-workshop-gitlab/",
      "sponsors": [{"name": "gitlab"}, {"name": "tv-cos"}]
    },
    {
      "title": "Jenkins World 2018 Nice",
      "ts": "20181022T000000",
      "date": "22/25 octobre, Nice",
      "desc": "In 2018, we bring together the DevOps community in two locations, providing opportunities to learn, explore, network and help shape the future of DevOps and Jenkins. DevOps World | Jenkins World is designed specifically for IT executives, DevOps practitioners, Jenkins users and partners.",
      "link": "https://www.cloudbees.com/devops-world/nice",
      "sponsors": [{"name": "aws"}, {"name": "cloudbees"}]
    },
    {
      "title": "Village des Sciences et de l'Innovation",
      "ts": "20181021T100000",
      "date": "20/21 octobre",
      "desc": "Pendant deux jours, organismes de formation et de recherche, associations, start up et grandes entreprises se mobilisent afin de partager avec vous leur passion pour les sciences, leur savoir-faire et ainsi vous faire connaitre les dernières innovations et leurs impacts sur notre vie quotidienne et notre avenir",
      "link": "https://casa-infos.agglo-casa.fr/content/village-des-sciences-et-de-l%E2%80%99innovation-1",
      "sponsors": [{"name": "sce"}, {"name": "region-sud"}, {"name": "universite"}, {"name": "06"}]
    },
    {
      "title": "Peut-on se passer de GitHub ?",
      "ts": "20181025T120000",
      "date": "25 octobre à 12h",
      "desc": "<b>Yann Esposito</b> (Cisco) vous parlera de l'utilisation de Git en tant que Project Manager",
      "link": "http://www.telecom-valley.fr/25-octobre-2018-commission-open-source/",
      "sponsors": [{"name": "tv-cos"}]
    },
    {
      "title": "Meetup Docker",
      "desc" : "Pour ce meetup de rentrée, 2 présentations / démo au programme: HELM + Docker Application Packages",
      "ts": "20181023T181500",
      "date" : "23 Octobre à 18h15 au Business Pôle",
      "link": "https://www.meetup.com/fr-FR/Docker-Nice/events/255262900/",
      "sponsors": [{"name": "meetup"}, {"name": "docker"}]
      
    },
    {
      "title": "Intro Haskell + H2O Sparkling Water",
      "desc": "Pour débuter cette nouvelle année sur de bonnes base, je propose de faire une introduction à la programmation fonctionnelle avec Haskell adaptée aux débutants.",
      "ts": "20181003T180000",
      "date": "Mercredi 3 Octobre à 18h au Learning Center SophiaTech",
      "link": "https://www.meetup.com/fr-FR/lambda-riviera/events/clcvfqyxnbfb/",
      "sponsors": [{"name": "meetup"}]
    },
    {
      "title": "Les Jeudis du NIDA",
      "desc": "Référencement naturel: ce que Google veut...",
      "ts": "20181004T120000",
      "date": "Jeudi 4 Octobre à 12h",
      "link": "https://www.eventbrite.fr/e/billets-les-jeudis-du-nida-referencement-naturel-ce-que-google-veut-50127828685",
      "sponsors": [{"name": "bp"}]
    },
    {
      "title": "Lancement de Monaco MeetIT",
      "desc": "Monaco MeetIT est une association monégasque qui a pour objet le partage de connaissances autour de thématiques techniques et des méthodologies de travail liées aux métiers des technologies de l’information.",
      "ts": "20181016T183000",
      "date": "16 octobre 18h30 à Monaco Tech",
      "link": "https://www.eventbrite.fr/e/billets-afterwork-de-lancement-de-monaco-meetit-50377935762",
      "sponsors": [{"name": "monaco-meetit"}] 
    },
    {
      "title": "Soirée du test logiciel",
      "desc": "Conférences et ateliers sur le futur et les tendances du test logciel",
      "ts": "20181011T170000",
      "date": "11 octobre à 17h à Skema Business School",
      "link": "http://www.telecom-valley.fr/stls2018/",
      "sponsors": [{"name": "tv"}]
    },

    {
      "title": "All Day DevOps 2018",
      "desc": "We're back with 100, 30-minute practitioner-led sessions and live Q&A on Slack. Our 5 tracks include CI/CD, Cloud-Native Infrastructure, DevSecOps, Cultural Transformations, and Site Reliability Engineering. 24 hours. 112 speakers. Free online.",
      "date": "17 octobre 2018, online event",
      "ts": "20181017T000000",
      "link": "https://www.alldaydevops.com/",
      "sponsors": [{"name": "all-day-devops"}]
    },
    {
      "title": "Création d'une Blockchain d'entreprise (lab) & introduction aux smart contracts",
      "desc": "Venez avec votre laptop ! Nous vous proposons de nous rejoindre pour réaliser la création d'un premier prototype d'une Blockchain d'entreprise (Lab) et avoir une introduction aux smart contracts.",
      "ts": "20181004T181500",
      "date": "4 octobre à 18h15 au CEEI",
      "link": "https://www.meetup.com/fr-FR/IBM-Cloud-Cote-d-Azur-Meetup/events/254472667/",
      "sponsors": [{"name": "ibm"}]
    },
    {
      "title": "Sophia Security Camp",
      "ts": "20181009T140000",
      "date": "9 octobre à 14h",
      "desc": "Participez à une demi-journée de hacking lab et une conférence sur la sécurisation des données de votre entreprise.",
      "link": "https://www.eventbrite.fr/e/billets-sophia-security-camp-2018-telecom-valley-50069253485",
      "sponsors": [{"name": "tv-csc"}, {"name": "uraeus"}, {"name": "anssi"}]
    },
    {
      "title": "Linux : discussions sur la limite entre noyau et espace utilisateur",
      "ts": "20180920T120000",
      "date": "20 septembre à 12h",
      "desc": "<b>Hervé Nicol</b> de <b>GFI</b> vous parlera du noyau Linux et développera des exemples avec BPF et FUSE",
      "link": "http://www.telecom-valley.fr/20-septembre-2018-commission-open-source/",
      "sponsors": [{"name": "tv-cos"}]
    },
    {
      "title": "M-Tourism Day 2018",
      "ts": "20181016T083000",
      "date": "16 octobre",
      "desc": "La commission m-Tourisme a le plaisir de vous annoncer la 8ème journée m-Tourisme. Au programme: l'utilisation de l'Intelligence Artificielle pour le tourisme",
      "link": "http://www.telecom-valley.fr/journee-m-tourisme-2018/",
      "sponsors": [{"name": "tv"}]
    },
    {
      "title": "Sophia Live Music",
      "ts": "20180913T173000",
      "date": "13-14 septembre, Pinède Mercure-Ibis",
      "desc": "Venez assister à 2 soirées de live, super ambiance garantie !",
      "link": "http://www.sophialivemusic.com/",
      "pict": "sophialivemusic.png"
    },
    {
      "title": "Agile Tour 2018",
      "ts": "20180921T090000",
      "date": "21 septembre à 9h",
      "desc": "L'Agile Tour est une série de conférences mondiales dédiées au développement agile. En 2017, c'était 93 dates dont 17 en France. L'étape sophipolitaine organisée par un collectif d’entreprises, d’agilistes et l’association Telecom Valley, va célébrer sa 8ème édition.",
      "link": "http://at2018.agiletour.org/sophia-antipolis.html",
      "sponsors": [{"name": "tv"}]
    },
    {
      "title": "DevOps D-Day",
      "ts": "20181115T080000",
      "date": "15 novembre à 8h à l'Orange Vélodrome (Marseille)",
      "desc": "Le DEVOPS D-DAY est un événement qui rassemble tous les acteurs du monde de l'IT passionnés par l'écosystème DEVOPS/CLOUD/DOCKER. Vous assisterez à des conférences animées par des speakers de renom.",
      "link": "http://2018.devops-dday.com/",
      "sponsors": [{"name": "treeptik"}]
    },
    {
      "title": "Nice WordCamp",
      "ts": "20181019T083000",
      "date": "19 octobre à 8H30 à l'ISEM (Nice)",
      "desc": "Un ensemble de conférences dédiées à WordPress",
      "link": "https://2018.nice.wordcamp.org/",
      "sponsors": [{"name": "wordpress"}, {"name": "isem"}]
    },
    {
      "title": "RivieraJug : soirée releases et perfs JVM",
      "ts": "20180913T180000",
      "date": "13 septembre à 18h à l'Inria",
      "desc": "Le Riviera JUG fait sa rentrée sur les chapeaux de roues et organise une rencontre avec Gil Tene, co-fondateur d'Azul Systems et co-créateur de la JVM Zing (entre plein d'autres), en personne !",
      "link": "http://www.rivierajug.org/xwiki/bin/view/Main/201809-gil-tene",
      "location": "inria",
      "pict": "rivierajug.png"
    },
    { 
      "type": "docker-meetup",
      "title": "Meetup Docker / RivieraJug",
      "ts": "20180118T180000",
      "date": "18 janvier à 18h",
      "desc": "<b>Anthony Lapenna</b> viendra nous présenter <b>Portainer</b> pour gérez vos environnements Docker en toute simplicité</p>",
      "link": "https://www.meetup.com/fr-FR/Docker-Nice/events/245650434/",
      "location": "Business-Pole",
      "pict": "docker.png"
    },
    {
      "type": "hashicorp-meetup",
      "title": "Hashicorp User Group #2",
      "ts": "20180123T180000",
      "date": "23 janvier à 18h",
      "desc": "<b>Thomas Sarboni</b> fera une introduction à <b>Terraform</b>, <b>David Calvert</b> nous présentera <b>Vault</b>",
      "link": "https://www.meetup.com/fr-FR/Sophia-Antipolis-HashiCorp-User-Group/events/246742297/",
      "pict": "hashicorp.png",
      "location": "Ausy"
    },
    {
      "type": "telecomvalley",
      "title": "Kafka par GreenCom Network",
      "location": "Business-Pole",
      "ts": "20180125T120000",
      "date": "25 janvier à 12h",
      "desc": "Retour d'expérience sur l'utilisation de <b>Kafka</b> par <b>Sébastien Alegret</b> de GreenCom Network",
      "link": "http://telecom-valley.fr/25-janvier-commission-open-source/",
      "pict": "tv-cos.png"
    },
    {
      "type": "cncf-meetup",
      "title": "Sophia CNCF #1",
      "ts": "20180129T173000",
      "date": "29 janvier à 17h30",
      "desc": "<b>Cédric Lamorinière</b> et <b>David Benque</b> vous présenterons <b>Prometheus</b> une solution de monitoring pour le système et les applications",
      "link": "https://www.meetup.com/fr-FR/CNCF-Cloud-Native-Computing-Sophia-Antipolis/events/246424155/",
      "pict": "cncf-sophia.png",
      "location": "amadeus"
    },
    {
      "type": "telecomvalley",
      "title": "Sécurité des applications cloud native",
      "location": "Business-Pole",
      "ts": "20180206T120000",
      "date": "06 février à 12h",
      "desc": "Cloud, virtualisation, microservices, conteneurs… quelles sont les bonnes pratiques de sécurité ? par <b>Serge HARTMANN</b> de <b>ACP Qualife</b>",
      "link": "http://www.telecom-valley.fr/6-fevrier-2018-commission-securite-cloud/",
      "pict": "tv-csc.png"
    },
    {
      "type": "rivierajug",
      "title": "Présentation de Hazelcast",
      "ts": "20180206T180000",
      "date": "06 février à 18h",
      "desc": "<b>Neil Stevenson</b> présentera la base de données <b>Hazelcast</b>",
      "link": "http://rivierajug.org/xwiki/bin/view/Main/201802-hazelcast",
      "pict": "rivierajug.png",
      "location": "inria"
    },
    {
      "type": "telecomvalley",
      "ts": "20180220T120000",
      "title": "Gestion d'un projet open source",
      "location": "Business-Pole",
      "date": "20 février à 12h",
      "desc": "Présentation de <b>Open Source Business Diagnostic</b> par <b>Jaime Arredondo</b> (BoldAndOpen.com)",
      "link": "http://telecom-valley.fr/20-fevrier-commission-open-source/",
      "pict": "tv-cos.png" 
    },
    {
      "type": "dmca",
      "title": "Développement Mobile Côte-d'Azur",
      "ts": "20180221T183000",
      "date": "21 février à 18h30",
      "desc": "#21: <b>Adopter la programmation réactive</b> par <b>Florent Pillet</b>, présentation de <b>Marvel App</b> par <b>Gregory Biondo</b>",
      "link": "https://www.meetup.com/fr-FR/Developpement-Mobile-Android-iOS-Cote-d-Azur/events/gszvcpyxdbcc/",
      "pict": "meetup.png"
    },
    {
      "type": "google-developer-group",
      "title": "Google Hash Code @Epitech Nice",
      "ts": "20180301T180000",
      "date": "1er mars à 18h",
      "location": "Epitech",
      "desc": "Comme tous les ans, Google organise le Hash Code, une compétition de programmation en équipe pour résoudre un problème d’ingénierie de la vie réelle de Google",
      "link": "https://www.meetup.com/fr-FR/GDGNice/events/245187635/",
      "pict": "google.png"
    },
    {
      "type": "telecomvalley",
      "title": "Programmation fonctionnelle",
      "location": "Business-Pole",
      "ts": "20180315T120000",
      "date": "15 mars à 12h",
      "desc": "Introduction à la programmation fonctionnelle par <b>Yann Esposito</b>. Attention, <b>Haskell</b> au programme...",
      "link": "http://www.telecom-valley.fr/15-mars-2018-commission-open-source/",
      "pict": "tv-cos.png"
    },
    {
      "type": "dmca",
      "title": "Développement Mobile Côte-d'Azur",
      "ts": "20180329T120000",
      "date": "29 mars à 12h",
      "desc": "#22 - Présentation de <b>Macha Da Costa</b>: Il y a bientôt un an, Google a officialisé le support du langage <b>Kotlin</b> pour le développement d’application mobile Android, à la G I/O (17-19 mai 2017). Ceci étant, pourquoi Kotlin ? Quels nouveaux concepts apporte ce langage de programmation orientée objet et fonctionnelle ? Quel est l’intérêt d'utiliser ce nouveau langage par rapport au Java ? Quels sont ses limitations et peuvent-elles nuire à son adoption ? Autant de questions auxquelles cette présentation tentera de répondre.",
      "link": "https://www.meetup.com/fr-FR/Developpement-Mobile-Android-iOS-Cote-d-Azur/events/246061099/",
      "pict": "meetup.png"
    },
    {
      "type": "telecomvalley",
      "title": "Présentation de GitLab par <b>Rémy Coutable</b>",
      "location": "Business-Pole",
      "ts": "20180412T120000",
      "date": "12 avril à 12h",
      "desc": "La vérité sur l’affaire GitLab ! Plongez avec moi dans cette mystérieuse affaire GitLab dont on parle tant. Je vous emmènerai dans les coulisses de la machine infernale qui sort une nouvelle version tous les 22 du mois. JIRA, Trello, Travis, GitHub, Docker Hub, oubliez tout ça, GitLab sait tout faire !",
      "link": "http://www.telecom-valley.fr/12-avril-2018-commission-open-source/",
      "pict": "tv-cos.png"
    },
    {
      "type": "rivieradev",
      "title": "RivieraDev édition 2018",
      "ts": "20180516T080000",
      "date": "Du 16 au 18 mai",
      "desc": "<b>Riviera DEV</b> c'est 3 jours de conférences et d'ateliers sur un large panel de sujets : langages de programmation, Front-end & UX, Mobile & IoT, Big Data & Machine Learning, Containers & DevOps, Performance, Agilité ...",
      "link": "http://rivieradev.fr",
      "pict": "rivieradev.png"
    },
    {
      "type": "sophiaconf",
      "title": "SophiaConf édition 2018",
      "ts": "20180702T180000",
      "date": "Du 2 au 5 juillet",
      "desc": "3 soirées de talks et une journée entièrement dédiée à des workshops techniques. Au programme cette année: AI, DevOps et Cloud, IoT. Les CFPs sont ouverts !",
      "link": "http://www.telecom-valley.fr/sophiaconf2018-intelligence-artificielle-iot-cloud-devops-technologies-open-source/",
      "pict": "sophiaconf2018.png",
      "location": "polytech"
    },
    {
      "type": "ibm-meetup",
      "title": "Garage IBM Cloud",
      "ts": "20180209T140000",
      "date": "09 février de 14h à 16h",
      "desc": "Découvrez le Garage IBM Cloud et les concepts UX à Nice Meridia au CEEI",
      "link": "https://www.meetup.com/fr-FR/IBM-Bluemix-Nice-Meetup/events/247317977",
      "pict": "meetup.png"
    },
    {
      "type": "telecomvalley",
      "title": "Soirée blockchain",
      "ts": "20180215T180000",
      "date": "15 février à 18h",
      "desc": "Parce que les blockchains sont au coeur de l’actualité et suscitent beaucoup de curiosité, la communauté Open Source vous propose une double soirée TechEvent dédiée à ce thème.",
      "link": "http://www.telecom-valley.fr/15-fevrier-2018-tech-conf-blockchain/",
      "pict": "tv-cos.png",
      "location": "polytech"
    },
    {
      "type": "telecomvalley",
      "title": "Tech Workshop Blockchain",
      "ts": "20180221T173000",
      "date": "21 février à 17h30",
      "desc": "<b>Raed Chamman</b> (Softeam) vous permettra d'approfondir et de mettre en application les <b>smart contracts</b> sur <b>Ethereum</b> lors d'une session Workshop",
      "link": "https://www.eventbrite.fr/e/billets-tech-workshop-blockchain-telecom-valley-43165173195",
      "pict": "tv-cos.png",
      "location": "polytech"
    },
    {
      "type": "aws-meetup",
      "title": "LadiesAInight - workshop Intelligence Artificielle",
      "ts": "20180514T170000",
      "date": "14 mai à 17h30",
      "desc": "<b>WHAT06</b> vous convie à une soirée sur l'<b>AI</b> le 14 mai. Réservé en priorité aux femmes travaillant dans les milieux techniques de la Côte d'Azur, cet évènement sera animé par <b>Julien Simon</b>, Principal Evangelist ML/AI chez Amazon Web Services. Il fera une introduction au <b>Deep Learning</b> sous la forme d'un workshop.",
      "link": "http://hackforwomen.com/index.php/ladies-ai-night-nice-2018/",
      "sponsors": [{"name": "what06"},{"name": "aws"},{"name": "dsti"}]
    },
    {
      "type": "docker-meetup",
      "title": "Celebrate the Docker 5th Birthday",
      "ts": "20180322T173000",
      "date": "22 mars à 17h30",
      "desc": "Une nouvelle fois, venez célébrer avec nous l'anniversaire de <b>Docker</b>. Au programme: labs, présentations, gateaux, et du fun... :)",
      "link": "https://www.meetup.com/fr-FR/Docker-Nice/events/247780841/",
      "pict": "docker.png",
      "location": "Business-Pole"
    },
    {
      "title": "SophI.A",
      "ts": "20181107T090000",
      "date": "du 7 au 9 novembre",
      "desc": "Sophia accueillera un congrès international sur l’intelligence artificielle. Au programme: des sessions scientifiques et techniques, des conférences citoyennes, des master classes, un spectacle, des rendez-vous entreprises.",
      "link": "http://sophia-summit.fr/",
      "sponsors": [{"name": "sce"},{"name": "scs"},{"name": "tv"},{"name": "frenchtech"},{"name": "teamcotedazur"}]
    },
    {
      "type": "Code competition challenge",
      "title": "Google Hashcode @Polytech Nice-Sophia",
      "ts": "20180301T180000",
      "date": "1er mars à 18h",
      "location": "polytech",
      "desc": "Hash Code is a team programming competition organized by Google for students and industry professionals across Europe, the Middle East and Africa. You pick your team and programming language, Google picks an engineering problem for you to solve",
      "link": "https://hashcode.withgoogle.com/signup.html",
      "pict": "google.png"
    },
    {
      "type": "clusir-paca",
      "title": "Espace RSSI par CLUSIR côte d'azur",
      "ts": "20180312T183000",
      "date": "12 mars à 18h30",
      "desc": "Le PIA : clé de voûte de votre conformité RGPD, par Edmond Cissé, Uraeus Consult. Exigence de l’article 35 du règlement, l’étude d’impact sur la vie privée (PIA: Privacy Impact Assessment) doit être menée pour tout projet susceptible d’engendrer des risques de sécurité élevés sur la vie privée des personnes. (...)",
      "link": "http://www.clusir-paca.fr/events/espace-rssi-9/",
      "pict": "clusir-paca.png"
    },
    {
      "type": "rivierajug",
      "title": "Soirée Kafka",
      "ts": "20180320T180000",
      "date": "20 mars à 18h",
      "desc": "<b>Florent Ramière</b> viendra présenter à quoi sert <b>Kafka</b> et comment l'utiliser",
      "link": "http://www.rivierajug.org/xwiki/bin/view/Blog/Mardi+20+mars+2018+%40+Sophia-Antipolis++soir%C3%A9e+Kafka",
      "pict": "rivierajug.png",
      "location": "inria"
    },
    {
      "type": "gfi",
      "title": "Open GFI - Le serverless avec AWS",
      "ts": "20180406T180000",
      "date": "6 avril à 18h00",
      "desc": "Nous accueillerons Rémi Retureau, architecte chez Amazon, pour nous présenter les services Amazon via une démonstration d'une chaîne d'intégration et de déploiement continu. Ce sera l'occasion de parler de \"Serverless\".",
      "link": "https://www.meetup.com/Open-Gfi/events/248932369/",
      "pict": "gfi.png",
      "location": "Golden-Tulip"
    },
    {
      "type": "GoogleDeveloperGroup",
      "title": "Cloud Study Jam - Edition Nice",
      "ts": "20180417T180000",
      "date": "17 avril à 18h00",
      "desc": "Venez découvrir la <b>Google Cloud Platform</b> et <b>Docker</b> en participant à notre <b>Cloud Study Jam</b> organisée conjointement par le Docker Nice Meetup et le Google Developer Group Nice qui vous proposent d'y participer à Nice ou à Sophia-Antipolis au choix et en simultané",
      "link": "https://www.meetup.com/fr-FR/GDGNice/events/248832554/",
      "pict": "google.png",
      "location": "Epitech"
     },
     {
      "type": "GoogleDeveloperGroup",
      "title": "Cloud Study Jam - Edition Sophia-Antipolis",
      "ts": "20180417T180000",
      "date": "17 avril à 18h00",
      "desc": "Venez découvrir la <b>Google Cloud Platform</b> et <b>Docker</b> en participant à notre <b>Cloud Study Jam</b> organisée conjointement par le Docker Nice Meetup et le Google Developer Group Nice qui vous proposent d'y participer à Nice ou à Sophia-Antipolis au choix et en simultané",
      "link": "https://www.meetup.com/fr-FR/GDGNice/events/248832635/",
      "pict": "google.png",
      "location": "Business-Pole"
     },
     {
      "type": "cncf-meetup",
      "title": "Sophia CNCF #2",
      "ts": "20180420T173000",
      "date": "20 avril à 17h30",
      "desc": "2 talks by <b>Cédric Lamorinière</b> and <b>David Benque</b>: Kubernetes Extensions + Pod Anomaly Detection",
      "link": "https://www.meetup.com/CNCF-Cloud-Native-Computing-Sophia-Antipolis/events/249669368/",
      "pict": "cncf-sophia.png",
      "location": "amadeus"
    },
    {
      "type": "startup-wekend",
      "title": "Startup Week-End Nice Sophia-Antipolis",
      "ts": "20180518T183000",
      "date": "à partir du 18 mai à 18h30",
      "desc": "Crée la boite de tes rêves en un weekend",
      "link": "https://www.swnsa.fr/",
      "pict": "",
      "location": "Epitech"
    },
    {
      "type": "docker-meetup",
      "title": "Meetup Docker - Security",
      "ts": "20180529T180000",
      "date": "le 29 mai à 18h00",
      "desc": "Let's talk about container security with Treeptik and NeuVector",
      "link": "https://www.meetup.com/fr-FR/Docker-Nice/events/250615089",
      "location": "Business-Pole",
      "sponsors": [{"name": "docker"}, {"name": "treeptik"}, {"name": "neuvector"}]
    },
    {
      "type": "GoogleDeveloperGroup",
      "title": "I/O Extended 2018 Nice",
      "ts": "20180508T184500",
      "date": "le 8 mai à 18h45",
      "desc": "Comme chaque année à cette période de l'année, Google organise la Google I/O, 2 jours de conférence à destination des développeurs organisés à San Francisco...",
      "link": "https://www.meetup.com/fr-FR/GDGNice/events/248834944",
      "pict": "google.png",
      "location": "Epitech"
    },
    {
      "type": "telecomvalley",
      "title": "Etude de cas: déploiement continu par <b>Sébastien Dagnicourt</b>",
      "location": "Business-Pole",
      "ts": "20180606T120000",
      "date": "06 juin  à 12h",
      "desc": "D'un environnement pseudo automatisé vers un déploiement continu avec des outils comme Ansible, Gitlab, Docker, ...",
      "link": "http://www.telecom-valley.fr/06-juin-2018-commission-open-source/",
      "pict": "tv-cos.png"
    },
    {
      "type": "dmca",
      "title": "Développement Mobile Côte-d'Azur & Docker Nice",
      "ts": "20180628T183000",
      "date": "28 juin à 18h30",
      "desc": "Au programme 2 présentations pour vous montrer comment docker peux vous aidez a créer vos applications mobiles: \"Docker, react native et expo par <b>Franck Marin</b>\", \"Jenkins - Docker & Android par <b>Olivier Tosello</b>\"",
      "link": "https://www.meetup.com/fr-FR/Developpement-Mobile-Android-iOS-Cote-d-Azur/events/248655689/",
      "pict": "meetup.png",
      "location": "Ausy"
    },
    {
      "type": "dmca",
      "title": "Développement Mobile Côte-d'Azur",
      "ts": "20180905T183000",
      "date": "5 septembre à 18h30",
      "desc": "<b>Olivier TOSELLO</b>, viendra nous parler de AWS et notre appli mobile. <b>Michael Lopez</b> et <b>Stephane Martarello</b>: Dimensionnement d'images à la volée avec AWS Lambda",
      "link": "https://www.meetup.com/fr-FR/Developpement-Mobile-Android-iOS-Cote-d-Azur/events/253070714/",
      "sponsors": [{"name": "meetup"},{"name": "aws"}]
    },
    {
      "type": "telecomvalley",
      "title": "Cybersécurrité et PMEs",
      "location": "Business-Pole",
      "ts": "20180904T120000",
      "date": "4 septembre à 12h",
      "desc": "Cybersécurrité et PMEs, quelles solutions ?",
      "link": "http://www.telecom-valley.fr/4-septembre-2018-commission-securite-cloud/",
      "pict": "tv-csc.png"
    },
    {
      "type": "hashicorp-meetup",
      "title": "Cas d'usages Terraform et Nomad",
      "ts": "20180906T183000",
      "date": "6 septembre à 18h30",
      "desc": "Présentation de Apache Heron et déploiement avec Nomad par <b>Thomas Sarboni</b>. Terraform en action et cas d'usage concret OpenStack par <b>Romain Di Santo</b>",
      "link": "https://www.meetup.com/fr-FR/Sophia-Antipolis-HashiCorp-User-Group/events/251397471/",
      "pict": "hashicorp.png"
    },
    {
      "type": "meetup",
      "title": "Le Go?! On commence par où?",
      "ts": "20180912T190000",
      "date": "12 septembre à 19h",
      "desc": "Le but est de se retrouver entre programmeurs expérimentés mais ne connaissant pas encore le Go.",
      "link": "https://www.meetup.com/fr-FR/Projet-Decouverte-du-Go/events/qqrcdqyxmbqb/",
      "pict": "meetup.png"
    },
    {
      "title": "Blockfest 1.5 by WHAT06",
      "ts": "20180922T090000",
      "date": "22 septembre à 9h au Village By CA",
      "desc": "Les collectifs <b>WHAT06</b> & <b>Le BlockFest</b> vous feront découvrir la technologie de la blockchain et comprendre son utilité dans divers domaines d’applications (Santé, ONG, RGPD…).",
      "link": "https://www.what06.com/",
      "sponsors": [{"name": "what06"},{"name": "le-village-by-ca"}, {"name": "orange-labs"}]
    }
  ]
}
